{
  "project_info": {
    "project_number": "374610559177",
    "project_id": "firebase-team23"
  },
  "client": [
    {
      "client_info": {
        "mobilesdk_app_id": "1:374610559177:android:14a38102e8f43a36",
        "android_client_info": {
          "package_name": "de.multiholle.team23"
        }
      },
      "oauth_client": [],
      "api_key": [
        {
          "current_key": "AIzaSyAe1fx67pipeDbVfkeqleVCdankSnwsx7A"
        }
      ],
      "services": {
        "analytics_service": {
          "status": 1
        },
        "appinvite_service": {
          "status": 1,
          "other_platform_oauth_client": []
        },
        "ads_service": {
          "status": 1
        }
      }
    }
  ],
  "configuration_version": "1"
}